
DisplayName "Pocket Castle Cathedral"



EVENT   2
 PAGE   1
  0()



EVENT   3
 PAGE   1
  0()



EVENT   4
 PAGE   1
  0()



EVENT   5
 PAGE   1
  0()



EVENT   6
 PAGE   1
  0()



EVENT   7
 PAGE   1
  0()



EVENT   8
 PAGE   1
  0()



EVENT   9
 PAGE   1
  0()



EVENT   10
 PAGE   1
  0()



EVENT   11
 PAGE   1
  0()



EVENT   12
 PAGE   1
  0()



EVENT   13
 PAGE   1
  0()



EVENT   14
 PAGE   1
  0()



EVENT   15
 PAGE   1
  0()



EVENT   1
 PAGE   1
  281(0)
  250(bytes(0x04,0x08,0x6f,0x3a,0x0c,0x52,0x50,0x47,0x3a,0x3a,0x53,0x45,0x08,0x3a,0x0a,0x40,0x6e,0x61,0x6d,0x65,0x49,0x22,0x09,0x4d,0x6f,0x76,0x65,0x06,0x3a,0x06,0x45,0x54,0x3a,0x0b,0x40,0x70,0x69,0x74,0x63,0x68,0x69,0x69,0x3a,0x0c,0x40,0x76,0x6f,0x6c,0x75,0x6d,0x65,0x69,0x55))
  TeleportPlayer(0,229,13,1,0,0)
  0()



EVENT   16
 PAGE   1
  281(0)
  250(bytes(0x04,0x08,0x6f,0x3a,0x0c,0x52,0x50,0x47,0x3a,0x3a,0x53,0x45,0x08,0x3a,0x0a,0x40,0x6e,0x61,0x6d,0x65,0x49,0x22,0x09,0x4d,0x6f,0x76,0x65,0x06,0x3a,0x06,0x45,0x54,0x3a,0x0b,0x40,0x70,0x69,0x74,0x63,0x68,0x69,0x69,0x3a,0x0c,0x40,0x76,0x6f,0x6c,0x75,0x6d,0x65,0x69,0x55))
  TeleportPlayer(0,229,13,1,0,0)
  0()



EVENT   17
 PAGE   1
  281(0)
  250(bytes(0x04,0x08,0x6f,0x3a,0x0c,0x52,0x50,0x47,0x3a,0x3a,0x53,0x45,0x08,0x3a,0x0a,0x40,0x6e,0x61,0x6d,0x65,0x49,0x22,0x09,0x4d,0x6f,0x76,0x65,0x06,0x3a,0x06,0x45,0x54,0x3a,0x0b,0x40,0x70,0x69,0x74,0x63,0x68,0x69,0x69,0x3a,0x0c,0x40,0x76,0x6f,0x6c,0x75,0x6d,0x65,0x69,0x55))
  TeleportPlayer(0,229,13,1,0,0)
  0()



EVENT   18
 PAGE   1
  // condition: switch 1026 is ON
  PictureDisplay(5,"80_iriasu_st31",0,0,0,0,100,100,0,0)
  PictureMove(5,null,0,0,0,0,100,100,255,0,30,true)
  If(1,3026,0,10,1)
   If(1,4026,0,0,0)
    ChangeVariable(4026,4026,0,0,1)
    ShowMessageFace("iriasu_fc4",0,0,2,1)
    ShowMessage("\\n<Ilias>（Affection:\\V[3026]) You've been working hard for me. Here, let me give you an heirloom.")
    250(bytes(0x04,0x08,0x6f,0x3a,0x0c,0x52,0x50,0x47,0x3a,0x3a,0x53,0x45,0x08,0x3a,0x0a,0x40,0x6e,0x61,0x6d,0x65,0x49,0x22,0x0a,0x49,0x74,0x65,0x6d,0x31,0x06,0x3a,0x06,0x45,0x54,0x3a,0x0b,0x40,0x70,0x69,0x74,0x63,0x68,0x69,0x69,0x3a,0x0c,0x40,0x76,0x6f,0x6c,0x75,0x6d,0x65,0x69,0x55))
    ChangeInventory_Item(75,0,0,1)
    0()
   EndIf()
   0()
  EndIf()
  If(1,3026,0,100,1)
   If(1,4026,0,1,0)
    ChangeVariable(4026,4026,0,0,2)
    ShowMessageFace("iriasu_fc4",0,0,2,2)
    ShowMessage("\\n<Ilias>（Affection:\\V[3026]) You've been working hard for me. Here, let me give you an heirloom.")
    250(bytes(0x04,0x08,0x6f,0x3a,0x0c,0x52,0x50,0x47,0x3a,0x3a,0x53,0x45,0x08,0x3a,0x0a,0x40,0x6e,0x61,0x6d,0x65,0x49,0x22,0x0a,0x49,0x74,0x65,0x6d,0x31,0x06,0x3a,0x06,0x45,0x54,0x3a,0x0b,0x40,0x70,0x69,0x74,0x63,0x68,0x69,0x69,0x3a,0x0c,0x40,0x76,0x6f,0x6c,0x75,0x6d,0x65,0x69,0x55))
    ChangeInventoryArmor(1031,0,0,1,false)
    0()
   EndIf()
   0()
  EndIf()
  If(1,3026,0,500,1)
   If(1,4026,0,2,0)
    ChangeVariable(4026,4026,0,0,3)
    ShowMessageFace("iriasu_fc4",0,0,2,3)
    ShowMessage("\\n<Ilias>（Affection:\\V[3026]) You've been working hard for me. Here, let me give you an heirloom.")
    250(bytes(0x04,0x08,0x6f,0x3a,0x0c,0x52,0x50,0x47,0x3a,0x3a,0x53,0x45,0x08,0x3a,0x0a,0x40,0x6e,0x61,0x6d,0x65,0x49,0x22,0x0a,0x49,0x74,0x65,0x6d,0x31,0x06,0x3a,0x06,0x45,0x54,0x3a,0x0b,0x40,0x70,0x69,0x74,0x63,0x68,0x69,0x69,0x3a,0x0c,0x40,0x76,0x6f,0x6c,0x75,0x6d,0x65,0x69,0x55))
    ChangeInventoryArmor(1071,0,0,1,false)
    0()
   EndIf()
   0()
  EndIf()
  If(1,3026,0,2000,1)
   If(1,4026,0,3,0)
    ChangeVariable(4026,4026,0,0,4)
    ShowMessageFace("iriasu_fc4",0,0,2,4)
    ShowMessage("\\n<Ilias>（Affection:\\V[3026]) You've been working hard for me. Here, let me give you an heirloom.")
    250(bytes(0x04,0x08,0x6f,0x3a,0x0c,0x52,0x50,0x47,0x3a,0x3a,0x53,0x45,0x08,0x3a,0x0a,0x40,0x6e,0x61,0x6d,0x65,0x49,0x22,0x0a,0x49,0x74,0x65,0x6d,0x31,0x06,0x3a,0x06,0x45,0x54,0x3a,0x0b,0x40,0x70,0x69,0x74,0x63,0x68,0x69,0x69,0x3a,0x0c,0x40,0x76,0x6f,0x6c,0x75,0x6d,0x65,0x69,0x55))
    ChangeInventoryArmor(1208,0,0,1,false)
    0()
   EndIf()
   0()
  EndIf()
  355("actor_label_jump")
  ShowMessageFace("iriasu_fc4",0,0,2,5)
  ShowMessage("\\n<Ilias>（Affection:\\V[3026])Ilias Arrow is an ultrasonic wave ♪ Ilias's Ears hear everything ♪")
  ShowMessageFace("iriasu_fc4",0,0,2,6)
  ShowMessage("\\n<Ilias>（Affection:\\V[3026])Ilias's Wings fly through the air ♪ Ilias Beam...")
  ShowMessageFace("iriasu_fc5",0,0,2,7)
  ShowMessage("\\n<Ilias>（Affection:\\V[3026])...wait, that's not even a real skill!")
  JumpToLabel("メニュー")
  DefineLabel("41")
  ShowMessageFace("stein_fc2",0,0,2,8)
  ShowMessage("\\n<Promestein (Affection:\\V[3041])>...what's wrong? You're staring at me.")
  ShowMessageFace("iriasu_fc4",0,0,2,9)
  ShowMessage("\\n<Ilias (Affection:\\V[3026])>(This time I will have you re-educated. Locked away somewhere, you will be forced to listen to my teachings.)")
  ShowMessageFace("stein_fc2",0,0,2,10)
  ShowMessage("\\n<Promestein (Affection:\\V[3041])>Hmm, can I have one of your feathers? I want to perform a small chemical experiment using the holy element.")
  ShowMessageFace("iriasu_fc4",0,0,2,11)
  ShowMessage("\\n<Ilias (Affection:\\V[3026])>And then you will become my loyal pawn. Fufufuu. （Use your own.）")
  ShowMessageFace("stein_fc2",0,0,2,12)
  ShowMessage("\\n<Promestein (Affection:\\V[3041])>...huh?")
  ShowMessageFace("iriasu_fc4",2,0,2,13)
  ShowMessage("\\n<Ilias (Affection:\\V[3026])>How rude, now my words and thoughts are mixed up. You shouldn't speak right as I am in the middle of a thought.")
  JumpToLabel("メニュー")
  DefineLabel("79")
  ShowMessageFace("nuruko_fc1",0,0,2,14)
  ShowMessage("\\n<Nuruko (Affection:\\V[3079])>Kyukyuu, kyuu. ♪")
  ShowMessageFace("iriasu_fc4",2,0,2,15)
  ShowMessage("\\n<Ilias (Affection:\\V[3026])>What a strange creature... Your composition is similar to that of an apoptosis, yet somehow different.")
  ShowMessageFace("nuruko_fc1",0,0,2,16)
  ShowMessage("\\n<Nuruko (Affection:\\V[3079])>Kyu!")
  ShowMessageFace("iriasu_fc4",2,0,2,17)
  ShowMessage("\\n<Ilias (Affection:\\V[3026])>Speaking of resembling other things... an octopus wiener?")
  ShowMessageFace("iriasu_fc4",2,0,2,18)
  ShowMessage("\\n<Ilias (Affection:\\V[3026])>...now I'm hungry.")
  ShowMessageFace("nuruko_fc1",0,0,2,19)
  ShowMessage("\\n<Nuruko (Affection:\\V[3079])>.......???")
  JumpToLabel("メニュー")
  DefineLabel("183")
  ShowMessageFace("ironmaiden_k_fc1",0,0,2,20)
  ShowMessage("\\n<Torture (Affection:\\V[3183])>I punish sinners...")
  ShowMessageFace("iriasu_fc4",7,0,2,21)
  ShowMessage("\\n<Ilias (Affection:\\V[3026])>A monster magically created to deal out punishment is itself a sin.")
  ShowMessageFace("ironmaiden_k_fc1",0,0,2,22)
  ShowMessage("\\n<Torture (Affection:\\V[3183])>Punishment...")
  ShowMessageFace("iriasu_fc4",5,0,2,23)
  ShowMessage("\\n<Ilias (Affection:\\V[3026])>Hey... what are you going to do to me?! Ahhhhh!!")
  JumpToLabel("メニュー")
  DefineLabel("531")
  ShowMessageFace("saniria_fc2",0,0,2,24)
  ShowMessage("\\n<King of San Ilia (Affection:\\V[3531])>I can't believe it, you actually look like this, Ilias?")
  ShowMessageFace("iriasu_fc4",2,0,2,25)
  ShowMessage("\\n<Ilias (Affection:\\V[3026])>I am also surprised by your appearance.")
  ShowMessageFace("saniria_fc2",0,0,2,26)
  ShowMessage("\\n<King of San Ilia (Affection:\\V[3531])>Well, no matter what forms we take, I shall dedicate my flesh and blood to your service.")
  ShowMessageFace("iriasu_fc4",2,0,2,27)
  ShowMessage("\\n<Ilias (Affection:\\V[3026])>Even though your flesh is mechanical and your blood is oil? Well, no matter. I expect great things from you.")
  JumpToLabel("メニュー")
  DefineLabel("メニュー")
  StartLoop()
   355("unlimited_choices(11, [\"Give Presents\",")
   655("\"Add to Party\",")
   655("\"View present list\",\"Request\",")
   655("\"Never Mind\"])")
   If(1,11,0,0,0)
    355("present_start(26)")
    0()
   EndIf()
   If(1,11,0,1,0)
    PictureClear(5)
    355("move_actor_ex(26)")
    EndEventProcessing()
    0()
   EndIf()
   If(1,11,0,2,0)
    ShowMessageFace("",0,0,2,28)
    ShowMessage("Affection   10:\\ii[75]")
    ShowMessage("Affection  100:\\ia[1031]")
    ShowMessage("Affection  500:\\ia[1071]")
    ShowMessage("Affection 2000:\\ia[1208]")
    0()
   EndIf()
   If(1,11,0,3,0)
    PictureClear(5)
    ShowMessageFace("",0,0,2,29)
    ShowMessage("Request what? (Affection：\\V[3026])")
    ShowChoices(strings("Footjob(Affection:100）","Never mind"),2)
    IfPlayerPicksChoice(0,null)
     If(1,3026,0,100,1)
      355("call_novel_scene(4021)")
      EndEventProcessing()
      0()
     Else()
      ShowMessageFace("iriasu_fc4",2,0,2,30)
      ShowMessage("\\n<Ilias (Affection:\\V[3026])>The reward comes later. That being said, I'm hungry...")
      0()
     EndIf()
     0()
    IfPlayerPicksChoice(1,null)
     0()
    404()
    0()
   EndIf()
   If(1,11,0,4,1)
    PictureClear(5)
    EndEventProcessing()
    0()
   EndIf()
   0()
  EndLoop()
  0()
 PAGE   2
  // condition: party contains actor #26
  0()



EVENT   19
 PAGE   1
  RunCommonEvent(111)
  0()



EVENT   21
 PAGE   1
  // condition: switch 1123 is ON
  PictureDisplay(5,"80_sisccubus_st01",0,0,0,0,100,100,0,0)
  PictureMove(5,null,0,0,0,0,100,100,255,0,30,true)
  If(1,3123,0,10,1)
   If(1,4123,0,0,0)
    ChangeVariable(4123,4123,0,0,1)
    ShowMessageFace("sisccubus_fc1",0,0,2,1)
    ShowMessage("\\n<Christie (Affection:\\V[3123])>I put my prayers into this. Please continue to look after me in the future.")
    250(bytes(0x04,0x08,0x6f,0x3a,0x0c,0x52,0x50,0x47,0x3a,0x3a,0x53,0x45,0x08,0x3a,0x0a,0x40,0x6e,0x61,0x6d,0x65,0x49,0x22,0x0a,0x49,0x74,0x65,0x6d,0x31,0x06,0x3a,0x06,0x45,0x54,0x3a,0x0b,0x40,0x70,0x69,0x74,0x63,0x68,0x69,0x69,0x3a,0x0c,0x40,0x76,0x6f,0x6c,0x75,0x6d,0x65,0x69,0x55))
    ChangeInventory_Item(524,0,0,1)
    0()
   EndIf()
   0()
  EndIf()
  If(1,3123,0,100,1)
   If(1,4123,0,1,0)
    ChangeVariable(4123,4123,0,0,2)
    ShowMessageFace("sisccubus_fc1",0,0,2,2)
    ShowMessage("\\n<Christie (Affection:\\V[3123])>I put my prayers into this. Please continue to look after me in the future.")
    250(bytes(0x04,0x08,0x6f,0x3a,0x0c,0x52,0x50,0x47,0x3a,0x3a,0x53,0x45,0x08,0x3a,0x0a,0x40,0x6e,0x61,0x6d,0x65,0x49,0x22,0x0a,0x49,0x74,0x65,0x6d,0x31,0x06,0x3a,0x06,0x45,0x54,0x3a,0x0b,0x40,0x70,0x69,0x74,0x63,0x68,0x69,0x69,0x3a,0x0c,0x40,0x76,0x6f,0x6c,0x75,0x6d,0x65,0x69,0x55))
    ChangeInventoryArmor(1031,0,0,1,false)
    0()
   EndIf()
   0()
  EndIf()
  If(1,3123,0,500,1)
   If(1,4123,0,2,0)
    ChangeVariable(4123,4123,0,0,3)
    ShowMessageFace("sisccubus_fc1",0,0,2,3)
    ShowMessage("\\n<Christie (Affection:\\V[3123])>I put my prayers into this. Please continue to look after me in the future.")
    250(bytes(0x04,0x08,0x6f,0x3a,0x0c,0x52,0x50,0x47,0x3a,0x3a,0x53,0x45,0x08,0x3a,0x0a,0x40,0x6e,0x61,0x6d,0x65,0x49,0x22,0x0a,0x49,0x74,0x65,0x6d,0x31,0x06,0x3a,0x06,0x45,0x54,0x3a,0x0b,0x40,0x70,0x69,0x74,0x63,0x68,0x69,0x69,0x3a,0x0c,0x40,0x76,0x6f,0x6c,0x75,0x6d,0x65,0x69,0x55))
    ChangeInventoryArmor(1138,0,0,1,false)
    0()
   EndIf()
   0()
  EndIf()
  If(1,3123,0,2000,1)
   If(1,4123,0,3,0)
    ChangeVariable(4123,4123,0,0,4)
    ShowMessageFace("sisccubus_fc1",0,0,2,4)
    ShowMessage("\\n<Christie (Affection:\\V[3123])>I put my prayers into this. Please continue to look after me in the future.")
    250(bytes(0x04,0x08,0x6f,0x3a,0x0c,0x52,0x50,0x47,0x3a,0x3a,0x53,0x45,0x08,0x3a,0x0a,0x40,0x6e,0x61,0x6d,0x65,0x49,0x22,0x0a,0x49,0x74,0x65,0x6d,0x31,0x06,0x3a,0x06,0x45,0x54,0x3a,0x0b,0x40,0x70,0x69,0x74,0x63,0x68,0x69,0x69,0x3a,0x0c,0x40,0x76,0x6f,0x6c,0x75,0x6d,0x65,0x69,0x55))
    ChangeInventoryArmor(1060,0,0,1,false)
    0()
   EndIf()
   0()
  EndIf()
  355("actor_label_jump")
  ShowMessageFace("sisccubus_fc1",0,0,2,5)
  ShowMessage("\\n<Christie (Affection:\\V[3123])>The day to relinquish your worldly desires... Has it come?")
  JumpToLabel("メニュー")
  DefineLabel("56")
  ShowMessageFace("inp_fc1",0,0,2,6)
  ShowMessage("\\n<Rami (Affection:\\V[3056])>Big sis, you're a succubus nun? So then you won't attack men?")
  ShowMessageFace("sisccubus_fc1",0,0,2,7)
  ShowMessage("\\n<Christie (Affection:\\V[3123])>No, I do.")
  ShowMessageFace("inp_fc1",3,0,2,8)
  ShowMessage("\\n<Rami (Affection:\\V[3056])>So you're not abstinent?")
  ShowMessageFace("sisccubus_fc1",0,0,2,9)
  ShowMessage("\\n<Christie (Affection:\\V[3123])>If you wear a nun's clothes then you are a nun even if you are a monster.")
  ShowMessageFace("inp_fc1",3,0,2,10)
  ShowMessage("\\n<Rami (Affection:\\V[3056])>(This person is useless.)")
  JumpToLabel("メニュー")
  DefineLabel("86")
  ShowMessageFace("sisccubus_fc1",0,0,2,11)
  ShowMessage("\\n<Christie (Affection:\\V[3123])>So you are in the same line of work? Let's do our best.")
  ShowMessageFace("name_s_fc1",0,0,2,12)
  ShowMessage("\\n<Rosary (Affection:\\V[3086])>To that end I am going to build a slimy church. Complete with a slimy chapel and a slimy organ.")
  ShowMessageFace("sisccubus_fc1",2,0,2,13)
  ShowMessage("\\n<Christie (Affection:\\V[3123])>With so much slime... My body is getting so excited.")
  JumpToLabel("メニュー")
  DefineLabel("122")
  ShowMessageFace("sisterlamia_fc1",2,0,2,14)
  ShowMessage("\\n<Sofia (Affection:\\V[3122])>Oh, succubus...")
  ShowMessageFace("sisccubus_fc1",2,0,2,15)
  ShowMessage("\\n<Christie (Affection:\\V[3123])>Ah, lamia...")
  ShowMessageFace("sisterlamia_fc1",2,0,2,16)
  ShowMessage("\\n<Sofia (Affection:\\V[3122])>.........")
  ShowMessageFace("sisccubus_fc1",2,0,2,17)
  ShowMessage("\\n<Christie (Affection:\\V[3123])>.........")
  ShowMessageFace("",0,0,2,13)
  ShowMessage("...They don't seem to get along.")
  JumpToLabel("メニュー")
  DefineLabel("143")
  ShowMessageFace("eva_fc1",2,0,2,19)
  ShowMessage("\\n<Eva (Affection:\\V[3143])>Why are you a succubus with the peculiarity of being a sister? Is it profitable?")
  ShowMessageFace("sisccubus_fc1",0,0,2,20)
  ShowMessage("\\n<Christie (Affection:\\V[3123])>Of course it is profitable. With just donations, getting three meals and a bed for the night is easy.")
  ShowMessageFace("eva_fc1",0,0,2,21)
  ShowMessage("\\n<Eva (Affection:\\V[3143])>Oookaay! I am a sister starting today! God, please give me food everyday.")
  ShowMessageFace("sisccubus_fc1",0,0,2,22)
  ShowMessage("\\n<Christie (Affection:\\V[3123])>（That's all it took to get her to believe?）")
  JumpToLabel("メニュー")
  DefineLabel("531")
  ShowMessageFace("saniria_fc2",0,0,2,23)
  ShowMessage("\\n<King of San Ilia (Affection:\\V[3531])>Even monsters honor the teachings of Ilias... All are equal before the goddess. You are truly welcome.")
  ShowMessageFace("sisccubus_fc1",2,0,2,24)
  ShowMessage("\\n<Christie (Affection:\\V[3123])>King of San Ilia... Please give me guidance on stopping my desires.")
  ShowMessageFace("saniria_fc2",0,0,2,25)
  ShowMessage("\\n<King of San Ilia (Affection:\\V[3531])>...Stop roaming around naked at night.")
  JumpToLabel("メニュー")
  DefineLabel("メニュー")
  StartLoop()
   355("unlimited_choices(11, [\"Give Presents\",")
   655("\"Add to Party\",")
   655("\"View present list\",\"Request\",")
   655("\"Never Mind\"])")
   If(1,11,0,0,0)
    355("present_start(123)")
    0()
   EndIf()
   If(1,11,0,1,0)
    PictureClear(5)
    355("move_actor_ex(123)")
    EndEventProcessing()
    0()
   EndIf()
   If(1,11,0,2,0)
    ShowMessageFace("",0,0,2,26)
    ShowMessage("Affection   10:\\ii[524]")
    ShowMessage("Affection  100:\\ia[1031]")
    ShowMessage("Affection  500:\\ia[1138]")
    ShowMessage("Affection 2000:\\ia[1060]")
    0()
   EndIf()
   If(1,11,0,3,0)
    PictureClear(5)
    ShowMessageFace("",0,0,2,27)
    ShowMessage("Request what? (Affection：\\V[3123])")
    ShowChoices(strings("Reverse rape 1(Affection:10)","Reverse rape 2(Affection:100)","Never mind"),3)
    IfPlayerPicksChoice(0,null)
     If(1,3123,0,10,1)
      355("call_novel_scene(4406)")
      EndEventProcessing()
      0()
     Else()
      ShowMessageFace("sisccubus_fc1",2,0,2,28)
      ShowMessage("\\n<Christie (Affection:\\V[3123])>That's... N-not good...")
      0()
     EndIf()
     0()
    IfPlayerPicksChoice(1,null)
     If(1,3123,0,100,1)
      355("call_novel_scene(4407)")
      EndEventProcessing()
      0()
     Else()
      ShowMessageFace("sisccubus_fc1",2,0,2,29)
      ShowMessage("\\n<Christie (Affection:\\V[3123])>That's... N-not good...")
      0()
     EndIf()
     0()
    IfPlayerPicksChoice(2,null)
     0()
    404()
    0()
   EndIf()
   If(1,11,0,4,1)
    PictureClear(5)
    EndEventProcessing()
    0()
   EndIf()
   0()
  EndLoop()
  0()
 PAGE   2
  // condition: party contains actor #123
  0()



EVENT   22
 PAGE   1
  // condition: switch 1122 is ON
  PictureDisplay(5,"80_sisterlamia_st01",0,0,0,0,100,100,0,0)
  PictureMove(5,null,0,0,0,0,100,100,255,0,30,true)
  If(1,3122,0,10,1)
   If(1,4122,0,0,0)
    ChangeVariable(4122,4122,0,0,1)
    ShowMessageFace("sisterlamia_fc1",0,0,2,1)
    ShowMessage("\\n<Sofia (Affection:\\V[3122])>With this I hope you may rest in peace. Let's continue to spread the faith in the future.")
    250(bytes(0x04,0x08,0x6f,0x3a,0x0c,0x52,0x50,0x47,0x3a,0x3a,0x53,0x45,0x08,0x3a,0x0a,0x40,0x6e,0x61,0x6d,0x65,0x49,0x22,0x0a,0x49,0x74,0x65,0x6d,0x31,0x06,0x3a,0x06,0x45,0x54,0x3a,0x0b,0x40,0x70,0x69,0x74,0x63,0x68,0x69,0x69,0x3a,0x0c,0x40,0x76,0x6f,0x6c,0x75,0x6d,0x65,0x69,0x55))
    ChangeInventory_Item(524,0,0,1)
    0()
   EndIf()
   0()
  EndIf()
  If(1,3122,0,100,1)
   If(1,4122,0,1,0)
    ChangeVariable(4122,4122,0,0,2)
    ShowMessageFace("sisterlamia_fc1",0,0,2,2)
    ShowMessage("\\n<Sofia (Affection:\\V[3122])>With this I hope you may rest in peace. Let's continue to spread the faith in the future.")
    250(bytes(0x04,0x08,0x6f,0x3a,0x0c,0x52,0x50,0x47,0x3a,0x3a,0x53,0x45,0x08,0x3a,0x0a,0x40,0x6e,0x61,0x6d,0x65,0x49,0x22,0x0a,0x49,0x74,0x65,0x6d,0x31,0x06,0x3a,0x06,0x45,0x54,0x3a,0x0b,0x40,0x70,0x69,0x74,0x63,0x68,0x69,0x69,0x3a,0x0c,0x40,0x76,0x6f,0x6c,0x75,0x6d,0x65,0x69,0x55))
    ChangeInventoryArmor(1031,0,0,1,false)
    0()
   EndIf()
   0()
  EndIf()
  If(1,3122,0,500,1)
   If(1,4122,0,2,0)
    ChangeVariable(4122,4122,0,0,3)
    ShowMessageFace("sisterlamia_fc1",0,0,2,3)
    ShowMessage("\\n<Sofia (Affection:\\V[3122])>With this I hope you may rest in peace. Let's continue to spread the faith in the future.")
    250(bytes(0x04,0x08,0x6f,0x3a,0x0c,0x52,0x50,0x47,0x3a,0x3a,0x53,0x45,0x08,0x3a,0x0a,0x40,0x6e,0x61,0x6d,0x65,0x49,0x22,0x0a,0x49,0x74,0x65,0x6d,0x31,0x06,0x3a,0x06,0x45,0x54,0x3a,0x0b,0x40,0x70,0x69,0x74,0x63,0x68,0x69,0x69,0x3a,0x0c,0x40,0x76,0x6f,0x6c,0x75,0x6d,0x65,0x69,0x55))
    ChangeInventoryArmor(1276,0,0,1,false)
    0()
   EndIf()
   0()
  EndIf()
  If(1,3122,0,2000,1)
   If(1,4122,0,3,0)
    ChangeVariable(4122,4122,0,0,4)
    ShowMessageFace("sisterlamia_fc1",0,0,2,4)
    ShowMessage("\\n<Sofia (Affection:\\V[3122])>With this I hope you may rest in peace. Let's continue to spread the faith in the future.")
    250(bytes(0x04,0x08,0x6f,0x3a,0x0c,0x52,0x50,0x47,0x3a,0x3a,0x53,0x45,0x08,0x3a,0x0a,0x40,0x6e,0x61,0x6d,0x65,0x49,0x22,0x0a,0x49,0x74,0x65,0x6d,0x31,0x06,0x3a,0x06,0x45,0x54,0x3a,0x0b,0x40,0x70,0x69,0x74,0x63,0x68,0x69,0x69,0x3a,0x0c,0x40,0x76,0x6f,0x6c,0x75,0x6d,0x65,0x69,0x55))
    ChangeInventoryArmor(1033,0,0,1,false)
    0()
   EndIf()
   0()
  EndIf()
  355("actor_label_jump")
  ShowMessageFace("sisterlamia_fc1",0,0,2,5)
  ShowMessage("\\n<Sofia (Affection:\\V[3122])>Come on, let's spread the teachings of the Goddess.")
  JumpToLabel("メニュー")
  DefineLabel("86")
  ShowMessageFace("sisterlamia_fc1",0,0,2,6)
  ShowMessage("\\n<Sofia (Affection:\\V[3122])>So we aspire to the same thing? To spread the teachings of Ilias across the world.")
  ShowMessageFace("name_s_fc1",0,0,2,7)
  ShowMessage("\\n<Rosary (Affection:\\V[3086])>To that end I am going to build a slimy church, complete with a slimy chapel and a slimy organ.")
  ShowMessageFace("sisterlamia_fc1",2,0,2,8)
  ShowMessage("\\n<Sofia (Affection:\\V[3122])>... Does it really have to be slimy?")
  JumpToLabel("メニュー")
  DefineLabel("123")
  ShowMessageFace("sisterlamia_fc1",2,0,2,9)
  ShowMessage("\\n<Sofia (Affection:\\V[3122])>Oh, succubus...")
  ShowMessageFace("sisccubus_fc1",2,0,2,10)
  ShowMessage("\\n<Christie (Affection:\\V[3123])>Ah, lamia...")
  ShowMessageFace("sisterlamia_fc1",2,0,2,11)
  ShowMessage("\\n<Sofia (Affection:\\V[3122])>.........")
  ShowMessageFace("sisccubus_fc1",2,0,2,12)
  ShowMessage("\\n<Christie (Affection:\\V[3123])>.........")
  ShowMessageFace("",0,0,2,13)
  ShowMessage("...They don't seem to get along.")
  JumpToLabel("メニュー")
  DefineLabel("166")
  ShowMessageFace("sisterlamia_fc1",0,0,2,14)
  ShowMessage("\\n<Sofia (Affection:\\V[3122])>Oh, long time no see. You seem to have become a respectable nurse, I'm happy for you.")
  ShowMessageFace("narcubus_fc1",0,0,2,15)
  ShowMessage("\\n<Manako (Affection:\\V[3166])>Sofia too, you became a respectable sister. We were both children while we were in church together.")
  ShowMessageFace("sisterlamia_fc1",0,0,2,16)
  ShowMessage("\\n<Sofia (Affection:\\V[3122])>May both our dreams come true. I hope you become a fine doctor.")
  ShowMessageFace("narcubus_fc1",0,0,2,17)
  ShowMessage("\\n<Manako (Affection:\\V[3166])>Sofia too, I hope you become a fine goddess. You have my support!")
  ShowMessageFace("sisterlamia_fc1",2,0,2,18)
  ShowMessage("\\n<Sofia (Affection:\\V[3122])>...Goddess?")
  JumpToLabel("メニュー")
  DefineLabel("531")
  ShowMessageFace("saniria_fc2",0,0,2,19)
  ShowMessage("\\n<King of San Ilia (Affection:\\V[3531])>Even monsters honor the teachings of Ilias... All are equal before the goddess. You are truly welcome.")
  ShowMessageFace("sisterlamia_fc1",0,0,2,20)
  ShowMessage("\\n<Sofia (Affection:\\V[3122])>I am often looked at with bias... But I want to spread the teachings of Ilias to the whole world.")
  ShowMessageFace("sisterlamia_fc1",4,0,2,21)
  ShowMessage("\\n<Sofia (Affection:\\V[3122])>King of San Ilia, head of the church...  Please guide me as well.")
  ShowMessageFace("saniria_fc2",0,0,2,22)
  ShowMessage("\\n<King of San Ilia (Affection:\\V[3531])>Your smile is scary... First, keep in mind that a natural smile is best.")
  JumpToLabel("メニュー")
  DefineLabel("メニュー")
  StartLoop()
   355("unlimited_choices(11, [\"Give Presents\",")
   655("\"Add to Party\",")
   655("\"View present list\",\"Request\",")
   655("\"Never Mind\"])")
   If(1,11,0,0,0)
    355("present_start(122)")
    0()
   EndIf()
   If(1,11,0,1,0)
    PictureClear(5)
    355("move_actor_ex(122)")
    EndEventProcessing()
    0()
   EndIf()
   If(1,11,0,2,0)
    ShowMessageFace("",0,0,2,23)
    ShowMessage("Affection   10:\\ii[524]")
    ShowMessage("Affection  100:\\ia[1031]")
    ShowMessage("Affection  500:\\ia[1276]")
    ShowMessage("Affection 2000:\\ia[1033]")
    0()
   EndIf()
   If(1,11,0,3,0)
    PictureClear(5)
    ShowMessageFace("",0,0,2,24)
    ShowMessage("Request what? (Affection：\\V[3122])")
    ShowChoices(strings("Love Filled Breasts(Affection:10)","Holy Snake's Embrace 1(Affection:50)","Holy Snake's Embrace 2(Affection:100)","Never mind"),4)
    IfPlayerPicksChoice(0,null)
     If(1,3122,0,10,1)
      355("call_novel_scene(4401)")
      EndEventProcessing()
      0()
     Else()
      ShowMessageFace("sisterlamia_fc1",0,0,2,25)
      ShowMessage("\\n<Sofia (Affection:\\V[3122])>You mustn't, the Goddess is watching...")
      0()
     EndIf()
     0()
    IfPlayerPicksChoice(1,null)
     If(1,3122,0,50,1)
      355("call_novel_scene(4402)")
      EndEventProcessing()
      0()
     Else()
      ShowMessageFace("sisterlamia_fc1",0,0,2,26)
      ShowMessage("\\n<Sofia (Affection:\\V[3122])>You mustn't, the Goddess is watching...")
      0()
     EndIf()
     0()
    IfPlayerPicksChoice(2,null)
     If(1,3122,0,100,1)
      355("call_novel_scene(4403)")
      EndEventProcessing()
      0()
     Else()
      ShowMessageFace("sisterlamia_fc1",0,0,2,27)
      ShowMessage("\\n<Sofia (Affection:\\V[3122])>You mustn't, the Goddess is watching...")
      0()
     EndIf()
     0()
    IfPlayerPicksChoice(3,null)
     0()
    404()
    0()
   EndIf()
   If(1,11,0,4,1)
    PictureClear(5)
    EndEventProcessing()
    0()
   EndIf()
   0()
  EndLoop()
  0()
 PAGE   2
  // condition: party contains actor #122
  0()



EVENT   20
 PAGE   1
  // condition: switch 1086 is ON
  PictureDisplay(5,"80_name_s_st01",0,0,0,0,100,100,0,0)
  PictureMove(5,null,0,0,0,0,100,100,255,0,30,true)
  If(1,3086,0,10,1)
   If(1,4086,0,0,0)
    ChangeVariable(4086,4086,0,0,1)
    ShowMessageFace("name_s_fc1",0,0,2,1)
    ShowMessage("\\n<Rosary (Affection:\\V[3086])>Please take this. It is a blessing from the goddess.")
    250(bytes(0x04,0x08,0x6f,0x3a,0x0c,0x52,0x50,0x47,0x3a,0x3a,0x53,0x45,0x08,0x3a,0x0a,0x40,0x6e,0x61,0x6d,0x65,0x49,0x22,0x0a,0x49,0x74,0x65,0x6d,0x31,0x06,0x3a,0x06,0x45,0x54,0x3a,0x0b,0x40,0x70,0x69,0x74,0x63,0x68,0x69,0x69,0x3a,0x0c,0x40,0x76,0x6f,0x6c,0x75,0x6d,0x65,0x69,0x55))
    ChangeInventoryWeapon(476,0,0,1,false)
    0()
   EndIf()
   0()
  EndIf()
  If(1,3086,0,100,1)
   If(1,4086,0,1,0)
    ChangeVariable(4086,4086,0,0,2)
    ShowMessageFace("name_s_fc1",0,0,2,2)
    ShowMessage("\\n<Rosary (Affection:\\V[3086])>Please take this. It is a blessing from the goddess.")
    250(bytes(0x04,0x08,0x6f,0x3a,0x0c,0x52,0x50,0x47,0x3a,0x3a,0x53,0x45,0x08,0x3a,0x0a,0x40,0x6e,0x61,0x6d,0x65,0x49,0x22,0x0a,0x49,0x74,0x65,0x6d,0x31,0x06,0x3a,0x06,0x45,0x54,0x3a,0x0b,0x40,0x70,0x69,0x74,0x63,0x68,0x69,0x69,0x3a,0x0c,0x40,0x76,0x6f,0x6c,0x75,0x6d,0x65,0x69,0x55))
    ChangeInventory_Item(524,0,0,1)
    0()
   EndIf()
   0()
  EndIf()
  If(1,3086,0,500,1)
   If(1,4086,0,2,0)
    ChangeVariable(4086,4086,0,0,3)
    ShowMessageFace("name_s_fc1",0,0,2,3)
    ShowMessage("\\n<Rosary (Affection:\\V[3086])>Please take this. It is a blessing from the goddess.")
    250(bytes(0x04,0x08,0x6f,0x3a,0x0c,0x52,0x50,0x47,0x3a,0x3a,0x53,0x45,0x08,0x3a,0x0a,0x40,0x6e,0x61,0x6d,0x65,0x49,0x22,0x0a,0x49,0x74,0x65,0x6d,0x31,0x06,0x3a,0x06,0x45,0x54,0x3a,0x0b,0x40,0x70,0x69,0x74,0x63,0x68,0x69,0x69,0x3a,0x0c,0x40,0x76,0x6f,0x6c,0x75,0x6d,0x65,0x69,0x55))
    ChangeInventoryArmor(1315,0,0,1,false)
    0()
   EndIf()
   0()
  EndIf()
  If(1,3086,0,2000,1)
   If(1,4086,0,3,0)
    ChangeVariable(4086,4086,0,0,4)
    ShowMessageFace("name_s_fc1",0,0,2,4)
    ShowMessage("\\n<Rosary (Affection:\\V[3086])>Please take this. It is a blessing from the goddess.")
    250(bytes(0x04,0x08,0x6f,0x3a,0x0c,0x52,0x50,0x47,0x3a,0x3a,0x53,0x45,0x08,0x3a,0x0a,0x40,0x6e,0x61,0x6d,0x65,0x49,0x22,0x0a,0x49,0x74,0x65,0x6d,0x31,0x06,0x3a,0x06,0x45,0x54,0x3a,0x0b,0x40,0x70,0x69,0x74,0x63,0x68,0x69,0x69,0x3a,0x0c,0x40,0x76,0x6f,0x6c,0x75,0x6d,0x65,0x69,0x55))
    ChangeInventoryArmor(1013,0,0,1,false)
    0()
   EndIf()
   0()
  EndIf()
  355("actor_label_jump")
  ShowMessageFace("name_s_fc1",0,0,2,5)
  ShowMessage("\\n<Rosary (Affection:\\V[3086])>My dream is to build a slimy church.")
  JumpToLabel("メニュー")
  JumpToLabel("85")
  ShowMessageFace("highslag_fc1",0,0,2,6)
  ShowMessage("\\n<Elizabeth (Affection:\\V[3085])>Why did you become a sister? Do you love Ilias that much?")
  ShowMessageFace("name_s_fc1",0,0,2,7)
  ShowMessage("\\n<Rosary (Affection:\\V[3086])>I want to be a righteous believer in Ilias. That and the purity of a church draws many men.")
  ShowMessageFace("highslag_fc1",0,0,2,8)
  ShowMessage("\\n<Elizabeth (Affection:\\V[3085])>Ohh? That sounds nice. I wonder if I could be a sister too?")
  JumpToLabel("メニュー")
  DefineLabel("122")
  ShowMessageFace("sisterlamia_fc1",0,0,2,9)
  ShowMessage("\\n<Sofia (Affection:\\V[3122])>So we aspire to the same thing? To spread the teachings of Ilias across the world.")
  ShowMessageFace("name_s_fc1",0,0,2,10)
  ShowMessage("\\n<Rosary (Affection:\\V[3086])>To that end I am going to build a slimy church. Complete with a slimy chapel and a slimy organ.")
  ShowMessageFace("sisterlamia_fc1",2,0,2,11)
  ShowMessage("\\n<Sofia (Affection:\\V[3122])>... Does it really have to be slimy?")
  JumpToLabel("メニュー")
  DefineLabel("123")
  ShowMessageFace("sisccubus_fc1",0,0,2,12)
  ShowMessage("\\n<Christie (Affection:\\V[3123])>So you are in the same line of work? Let's do our best.")
  ShowMessageFace("name_s_fc1",0,0,2,13)
  ShowMessage("\\n<Rosary (Affection:\\V[3086])>To that end I am going to build a slimy church. Complete with a slimy chapel and a slimy organ.")
  ShowMessageFace("sisccubus_fc1",2,0,2,14)
  ShowMessage("\\n<Christie (Affection:\\V[3123])>With so much slime... My body is getting so excited.")
  JumpToLabel("メニュー")
  DefineLabel("531")
  ShowMessageFace("saniria_fc2",0,0,2,15)
  ShowMessage("\\n<King of San Ilia (Affection:\\V[3531])>So there are even monsters who follow the teachings of Ilias? All are equal before God, it is a true pleasure.")
  ShowMessageFace("name_s_fc1",0,0,2,16)
  ShowMessage("\\n<Rosary (Affection:\\V[3086])>You are the King of San Ilia... I am still immature, please show me the way.")
  ShowMessageFace("saniria_fc2",0,0,2,17)
  ShowMessage("\\n<King of San Ilia (Affection:\\V[3531])>Was it you that ruined my vegetable garden? That slime covered veil seems familiar...")
  JumpToLabel("メニュー")
  DefineLabel("メニュー")
  StartLoop()
   355("unlimited_choices(11, [\"Give Presents\",")
   655("\"Add to Party\",")
   655("\"View present list\",\"Request\",")
   655("\"Never Mind\"])")
   If(1,11,0,0,0)
    355("present_start(86)")
    0()
   EndIf()
   If(1,11,0,1,0)
    PictureClear(5)
    355("move_actor_ex(86)")
    EndEventProcessing()
    0()
   EndIf()
   If(1,11,0,2,0)
    ShowMessageFace("",0,0,2,18)
    ShowMessage("Affection   10:\\iw[476]")
    ShowMessage("Affection  100:\\ii[524]")
    ShowMessage("Affection  500:\\ia[1315]")
    ShowMessage("Affection 2000:\\ia[1013]")
    0()
   EndIf()
   If(1,11,0,3,0)
    PictureClear(5)
    ShowMessageFace("",0,0,2,19)
    ShowMessage("Request what? (Affection：\\V[3086])")
    ShowChoices(strings("Blowjob(Affection:10)","Paizuri(Affection:100)","Never mind"),3)
    IfPlayerPicksChoice(0,null)
     If(1,3086,0,10,1)
      355("call_novel_scene(4221)")
      EndEventProcessing()
      0()
     Else()
      ShowMessageFace("name_s_fc1",0,0,2,20)
      ShowMessage("\\n<Rosary (Affection:\\V[3086])>I am a sister, you shouldn't be making such requests.")
      0()
     EndIf()
     0()
    IfPlayerPicksChoice(1,null)
     If(1,3086,0,100,1)
      355("call_novel_scene(4222)")
      EndEventProcessing()
      0()
     Else()
      ShowMessageFace("name_s_fc1",0,0,2,21)
      ShowMessage("\\n<Rosary (Affection:\\V[3086])>I am a sister, you shouldn't be making such requests.")
      0()
     EndIf()
     0()
    IfPlayerPicksChoice(2,null)
     0()
    404()
    0()
   EndIf()
   If(1,11,0,4,1)
    PictureClear(5)
    EndEventProcessing()
    0()
   EndIf()
   0()
  EndLoop()
  0()
 PAGE   2
  // condition: party contains actor #86
  0()

EVENT   23
 PAGE   1
  // condition: switch 1556 is ON
  PictureDisplay(5,"80_mob_sister1_st01",0,0,0,0,100,100,0,0)
  PictureMove(5,null,0,0,0,0,100,100,255,0,30,true)
  355("actor_label_jump")
  ShowMessageFace("mob_sister1_fc1",0,0,2,1)
  ShowMessage("\\n<Maria (Affection:\\V[3556])>I hate violence... But for the Goddess I will give it my all.")
  JumpToLabel("メニュー")
  DefineLabel("メニュー")
  ShowChoices(strings("Add to party","Never mind"),2)
  IfPlayerPicksChoice(0,null)
   PictureClear(5)
   355("move_actor_ex(556)")
   EndEventProcessing()
   0()
  IfPlayerPicksChoice(1,null)
   PictureClear(5)
   EndEventProcessing()
   0()
  404()
  0()
 PAGE   2
  // condition: party contains actor #556
  0()